^C:\USERS\BYATT\SOURCE\REPOS\WB.TICTACTOE\WB.TICTACTOE\DEBUG\MAIN.OBJ
C:\USERS\BYATT\SOURCE\REPOS\WB.TICTACTOE\DEBUG\WB.TICTACTOE.EXE
C:\USERS\BYATT\SOURCE\REPOS\WB.TICTACTOE\WB.TICTACTOE\DEBUG\WB.TICTACTOE.ILK
C:\USERS\BYATT\SOURCE\REPOS\WB.TICTACTOE\DEBUG\WB.TICTACTOE.PDB
